simulation/waveform/tb_decompose_L17.vcd
$date
	Sat Jan 31 18:17:39 2026
$end
$version
	Icarus Verilog
$end
$timescale
	1ps
$end
$scope module tb_decompose_L17 $end
$var wire 1 ! l7_dout_valid $end
$var wire 1 " l6_dout_valid $end
$var wire 1 # l5_dout_valid $end
$var wire 1 $ l4_dout_valid $end
$var wire 1 % l3_dout_valid $end
$var wire 1 & l2_dout_valid $end
$var wire 1 ' l1_dout_valid $end
$var parameter 32 ( COEF_WIDTH $end
$var parameter 32 ) DATA_WIDTH $end
$var parameter 25 * DEC_H0 $end
$var parameter 25 + DEC_H1 $end
$var parameter 25 , DEC_H2 $end
$var parameter 25 - DEC_H3 $end
$var parameter 25 . DEC_H4 $end
$var parameter 25 / DEC_H5 $end
$var parameter 25 0 DEC_H6 $end
$var parameter 25 1 DEC_H7 $end
$var parameter 32 2 INTERNAL_WIDTH $end
$var parameter 32 3 T $end
$var reg 1 4 clk $end
$var reg 1 5 din_valid $end
$var reg 1 6 rst_n $end
$var integer 32 7 file_handle [31:0] $end
$var integer 32 8 i [31:0] $end
$var integer 32 9 out_file_a1 [31:0] $end
$var integer 32 : out_file_a2 [31:0] $end
$var integer 32 ; out_file_a3 [31:0] $end
$var integer 32 < out_file_a4 [31:0] $end
$var integer 32 = out_file_a5 [31:0] $end
$var integer 32 > out_file_a6 [31:0] $end
$var integer 32 ? out_file_a7 [31:0] $end
$var integer 32 @ scan_ret [31:0] $end
$scope module u_L1 $end
$var wire 1 4 clk $end
$var wire 16 A din_0 [15:0] $end
$var wire 16 B din_1 [15:0] $end
$var wire 16 C din_10 [15:0] $end
$var wire 16 D din_11 [15:0] $end
$var wire 16 E din_12 [15:0] $end
$var wire 16 F din_13 [15:0] $end
$var wire 16 G din_14 [15:0] $end
$var wire 16 H din_15 [15:0] $end
$var wire 16 I din_2 [15:0] $end
$var wire 16 J din_3 [15:0] $end
$var wire 16 K din_4 [15:0] $end
$var wire 16 L din_5 [15:0] $end
$var wire 16 M din_6 [15:0] $end
$var wire 16 N din_7 [15:0] $end
$var wire 16 O din_8 [15:0] $end
$var wire 16 P din_9 [15:0] $end
$var wire 1 5 din_valid $end
$var wire 1 6 rst_n $end
$var parameter 32 Q COEF_FRAC $end
$var parameter 32 R COEF_WIDTH $end
$var parameter 32 S DATA_WIDTH $end
$var parameter 25 T DEC_H0 $end
$var parameter 25 U DEC_H1 $end
$var parameter 25 V DEC_H2 $end
$var parameter 25 W DEC_H3 $end
$var parameter 25 X DEC_H4 $end
$var parameter 25 Y DEC_H5 $end
$var parameter 25 Z DEC_H6 $end
$var parameter 25 [ DEC_H7 $end
$var parameter 32 \ INTERNAL_WIDTH $end
$var parameter 33 ] MULT_WIDTH $end
$var reg 48 ^ a1_0 [47:0] $end
$var reg 48 _ a1_1 [47:0] $end
$var reg 48 ` a1_2 [47:0] $end
$var reg 48 a a1_3 [47:0] $end
$var reg 48 b a1_4 [47:0] $end
$var reg 48 c a1_5 [47:0] $end
$var reg 48 d a1_6 [47:0] $end
$var reg 48 e a1_7 [47:0] $end
$var reg 1 ' dout_valid $end
$var reg 1 f has_data $end
$var reg 1 g valid_s1 $end
$var reg 1 h valid_s2 $end
$upscope $end
$scope module u_L2 $end
$var wire 48 i a1_0 [47:0] $end
$var wire 48 j a1_1 [47:0] $end
$var wire 48 k a1_2 [47:0] $end
$var wire 48 l a1_3 [47:0] $end
$var wire 48 m a1_4 [47:0] $end
$var wire 48 n a1_5 [47:0] $end
$var wire 48 o a1_6 [47:0] $end
$var wire 48 p a1_7 [47:0] $end
$var wire 1 4 clk $end
$var wire 1 ' din_valid $end
$var wire 1 6 rst_n $end
$var parameter 32 q COEF_FRAC $end
$var parameter 32 r COEF_WIDTH $end
$var parameter 25 s DEC_H0 $end
$var parameter 25 t DEC_H1 $end
$var parameter 25 u DEC_H2 $end
$var parameter 25 v DEC_H3 $end
$var parameter 25 w DEC_H4 $end
$var parameter 25 x DEC_H5 $end
$var parameter 25 y DEC_H6 $end
$var parameter 25 z DEC_H7 $end
$var parameter 32 { INTERNAL_WIDTH $end
$var parameter 33 | MULT_WIDTH $end
$var reg 48 } a2_0 [47:0] $end
$var reg 48 ~ a2_1 [47:0] $end
$var reg 48 !" a2_2 [47:0] $end
$var reg 48 "" a2_3 [47:0] $end
$var reg 1 & dout_valid $end
$var reg 1 #" has_data $end
$var reg 1 $" valid_s1 $end
$var reg 1 %" valid_s2 $end
$upscope $end
$scope module u_L3 $end
$var wire 48 &" a2_0 [47:0] $end
$var wire 48 '" a2_1 [47:0] $end
$var wire 48 (" a2_2 [47:0] $end
$var wire 48 )" a2_3 [47:0] $end
$var wire 48 *" a2_m1 [47:0] $end
$var wire 48 +" a2_m2 [47:0] $end
$var wire 48 ," a2_m3 [47:0] $end
$var wire 48 -" a2_m4 [47:0] $end
$var wire 48 ." a2_m5 [47:0] $end
$var wire 48 /" a2_m6 [47:0] $end
$var wire 48 0" a2_m7 [47:0] $end
$var wire 1 4 clk $end
$var wire 1 & din_valid $end
$var wire 1 6 rst_n $end
$var parameter 32 1" COEF_FRAC $end
$var parameter 32 2" COEF_WIDTH $end
$var parameter 25 3" DEC_H0 $end
$var parameter 25 4" DEC_H1 $end
$var parameter 25 5" DEC_H2 $end
$var parameter 25 6" DEC_H3 $end
$var parameter 25 7" DEC_H4 $end
$var parameter 25 8" DEC_H5 $end
$var parameter 25 9" DEC_H6 $end
$var parameter 25 :" DEC_H7 $end
$var parameter 32 ;" INTERNAL_WIDTH $end
$var parameter 33 <" MULT_WIDTH $end
$var reg 48 =" a3_0 [47:0] $end
$var reg 48 >" a3_1 [47:0] $end
$var reg 1 % dout_valid $end
$var reg 2 ?" has_data [1:0] $end
$var reg 1 @" valid_s1 $end
$var reg 1 A" valid_s2 $end
$upscope $end
$scope module u_L4 $end
$var wire 48 B" a3_0 [47:0] $end
$var wire 48 C" a3_1 [47:0] $end
$var wire 1 4 clk $end
$var wire 1 % din_valid $end
$var wire 1 6 rst_n $end
$var parameter 32 D" COEF_FRAC $end
$var parameter 32 E" COEF_WIDTH $end
$var parameter 25 F" DEC_H0 $end
$var parameter 25 G" DEC_H1 $end
$var parameter 25 H" DEC_H2 $end
$var parameter 25 I" DEC_H3 $end
$var parameter 25 J" DEC_H4 $end
$var parameter 25 K" DEC_H5 $end
$var parameter 25 L" DEC_H6 $end
$var parameter 25 M" DEC_H7 $end
$var parameter 32 N" INTERNAL_WIDTH $end
$var parameter 33 O" MULT_WIDTH $end
$var reg 48 P" a4_0 [47:0] $end
$var reg 1 $ dout_valid $end
$var reg 4 Q" has_data [3:0] $end
$var reg 76 R" sum_s2 [75:0] $end
$var reg 1 S" valid_s1 $end
$var reg 1 T" valid_s2 $end
$upscope $end
$scope module u_L5 $end
$var wire 48 U" a4_in [47:0] $end
$var wire 1 4 clk $end
$var wire 1 $ din_valid $end
$var wire 1 6 rst_n $end
$var wire 1 V" start_calc $end
$var parameter 32 W" COEF_FRAC $end
$var parameter 32 X" COEF_WIDTH $end
$var parameter 25 Y" DEC_H0 $end
$var parameter 25 Z" DEC_H1 $end
$var parameter 25 [" DEC_H2 $end
$var parameter 25 \" DEC_H3 $end
$var parameter 25 ]" DEC_H4 $end
$var parameter 25 ^" DEC_H5 $end
$var parameter 25 _" DEC_H6 $end
$var parameter 25 `" DEC_H7 $end
$var parameter 32 a" INTERNAL_WIDTH $end
$var parameter 33 b" MULT_WIDTH $end
$var reg 48 c" a5_out [47:0] $end
$var reg 1 # dout_valid $end
$var reg 7 d" has_data [6:0] $end
$var reg 1 e" phase $end
$var reg 76 f" sum_s2 [75:0] $end
$var reg 1 g" valid_s1 $end
$var reg 1 h" valid_s2 $end
$upscope $end
$scope module u_L6 $end
$var wire 48 i" a5_in [47:0] $end
$var wire 1 4 clk $end
$var wire 1 # din_valid $end
$var wire 1 6 rst_n $end
$var wire 1 j" start_calc $end
$var parameter 32 k" COEF_FRAC $end
$var parameter 32 l" COEF_WIDTH $end
$var parameter 25 m" DEC_H0 $end
$var parameter 25 n" DEC_H1 $end
$var parameter 25 o" DEC_H2 $end
$var parameter 25 p" DEC_H3 $end
$var parameter 25 q" DEC_H4 $end
$var parameter 25 r" DEC_H5 $end
$var parameter 25 s" DEC_H6 $end
$var parameter 25 t" DEC_H7 $end
$var parameter 32 u" INTERNAL_WIDTH $end
$var parameter 33 v" MULT_WIDTH $end
$var reg 48 w" a6_out [47:0] $end
$var reg 1 " dout_valid $end
$var reg 14 x" has_data [13:0] $end
$var reg 1 y" phase $end
$var reg 76 z" sum_s2 [75:0] $end
$var reg 1 {" valid_s1 $end
$var reg 1 |" valid_s2 $end
$upscope $end
$scope module u_L7 $end
$var wire 48 }" a6_in [47:0] $end
$var wire 1 4 clk $end
$var wire 1 " din_valid $end
$var wire 1 6 rst_n $end
$var wire 1 ~" start_calc $end
$var parameter 32 !# COEF_FRAC $end
$var parameter 32 "# COEF_WIDTH $end
$var parameter 25 ## DEC_H0 $end
$var parameter 25 $# DEC_H1 $end
$var parameter 25 %# DEC_H2 $end
$var parameter 25 &# DEC_H3 $end
$var parameter 25 '# DEC_H4 $end
$var parameter 25 (# DEC_H5 $end
$var parameter 25 )# DEC_H6 $end
$var parameter 25 *# DEC_H7 $end
$var parameter 32 +# INTERNAL_WIDTH $end
$var parameter 33 ,# MULT_WIDTH $end
$var reg 48 -# a7_out [47:0] $end
$var reg 1 ! dout_valid $end
$var reg 28 .# has_data [27:0] $end
$var reg 1 /# phase $end
$var reg 76 0# sum_s2 [75:0] $end
$var reg 1 1# valid_s1 $end
$var reg 1 2# valid_s2 $end
$upscope $end
$upscope $end
$enddefinitions $end
$comment Show the parameter values. $end
$dumpall
b1001001 ,#
b110000 +#
b1000001111111100011 *#
b1111111100110001011111110 )#
b1111100110100110011000110 (#
b1001100010000000110100 '#
b11001101110000011101001 &#
b1111111011000111111000 %#
b1111111000011010011100111 $#
b1111101100100110101001111 ##
b11001 "#
b10111 !#
b1001001 v"
b110000 u"
b1000001111111100011 t"
b1111111100110001011111110 s"
b1111100110100110011000110 r"
b1001100010000000110100 q"
b11001101110000011101001 p"
b1111111011000111111000 o"
b1111111000011010011100111 n"
b1111101100100110101001111 m"
b11001 l"
b10111 k"
b1001001 b"
b110000 a"
b1000001111111100011 `"
b1111111100110001011111110 _"
b1111100110100110011000110 ^"
b1001100010000000110100 ]"
b11001101110000011101001 \"
b1111111011000111111000 ["
b1111111000011010011100111 Z"
b1111101100100110101001111 Y"
b11001 X"
b10111 W"
b1001001 O"
b110000 N"
b1000001111111100011 M"
b1111111100110001011111110 L"
b1111100110100110011000110 K"
b1001100010000000110100 J"
b11001101110000011101001 I"
b1111111011000111111000 H"
b1111111000011010011100111 G"
b1111101100100110101001111 F"
b11001 E"
b10111 D"
b1001001 <"
b110000 ;"
b1000001111111100011 :"
b1111111100110001011111110 9"
b1111100110100110011000110 8"
b1001100010000000110100 7"
b11001101110000011101001 6"
b1111111011000111111000 5"
b1111111000011010011100111 4"
b1111101100100110101001111 3"
b11001 2"
b10111 1"
b1001001 |
b110000 {
b1000001111111100011 z
b1111111100110001011111110 y
b1111100110100110011000110 x
b1001100010000000110100 w
b11001101110000011101001 v
b1111111011000111111000 u
b1111111000011010011100111 t
b1111101100100110101001111 s
b11001 r
b10111 q
b101001 ]
b110000 \
b1000001111111100011 [
b1111111100110001011111110 Z
b1111100110100110011000110 Y
b1001100010000000110100 X
b11001101110000011101001 W
b1111111011000111111000 V
b1111111000011010011100111 U
b1111101100100110101001111 T
b10000 S
b11001 R
b10111 Q
b1010 3
b110000 2
b1000001111111100011 1
b1111111100110001011111110 0
b1111100110100110011000110 /
b1001100010000000110100 .
b11001101110000011101001 -
b1111111011000111111000 ,
b1111111000011010011100111 +
b1111101100100110101001111 *
b10000 )
b11001 (
$end
#0
$dumpvars
02#
01#
bx 0#
0/#
b0 .#
b0 -#
0~"
b0 }"
0|"
0{"
bx z"
0y"
b0 x"
b0 w"
0j"
b0 i"
0h"
0g"
bx f"
0e"
b0 d"
b0 c"
0V"
b0 U"
0T"
0S"
bx R"
b0 Q"
b0 P"
b0 C"
b0 B"
0A"
0@"
b0 ?"
b0 >"
b0 ="
b0 0"
b0 /"
b0 ."
b0 -"
b0 ,"
b0 +"
b0 *"
b0 )"
b0 ("
b0 '"
b0 &"
0%"
0$"
0#"
b0 ""
b0 !"
b0 ~
b0 }
b0 p
b0 o
b0 n
b0 m
b0 l
b0 k
b0 j
b0 i
0h
0g
0f
b0 e
b0 d
b0 c
b0 b
b0 a
b0 `
b0 _
b0 ^
b0 P
b0 O
b0 N
b0 M
b0 L
b0 K
b0 J
b0 I
b0 H
b0 G
b0 F
b0 E
b0 D
b0 C
b0 B
b0 A
bx @
b10000000000000000000000000001010 ?
b10000000000000000000000000001001 >
b10000000000000000000000000001000 =
b10000000000000000000000000000111 <
b10000000000000000000000000000110 ;
b10000000000000000000000000000101 :
b10000000000000000000000000000100 9
b10000 8
b10000000000000000000000000000011 7
06
05
04
0'
0&
0%
0$
0#
0"
0!
$end
#5000
14
#10000
04
#15000
b0 0#
b0 z"
b0 f"
b0 R"
14
#20000
04
#25000
14
#30000
04
#35000
14
#40000
04
#45000
14
#50000
04
#55000
14
#60000
04
#65000
14
#70000
04
#75000
14
#80000
04
#85000
14
#90000
04
#95000
14
#100000
04
16
#105000
15
b10000 @
b1011111101111110 H
b1011110011111010 G
b100001001111111 F
b101010100001 E
b10010000011 D
b10110110010101 C
b1110110111001010 P
b100100001110010 O
b11110100110110 N
b1111011001000000 M
b1011011001011 L
b1111010000010011 K
b11100000011 J
b1000000001110 I
b10000110011111 B
b11110100000 A
14
#110000
04
#115000
1f
b10101011011001 H
b1101101100110111 G
b1111001010101011 F
b1101101001 E
b100010101111010 D
b1100100001000111 C
b1010111011100 P
b1100010001011011 O
b10101111010101 N
b1111100111111100 M
b10111010111110 L
b100101011001000 K
b11100111010000 J
b10101101110110 I
b11001111111000 B
b1011010100001001 A
14
#120000
04
#125000
1g
b1100011000000110 H
b1101001011000000 G
b1101010101001 F
b1101000001110 E
b1011101101001010 D
b1111011100001 C
b1111011000101010 P
b1110101000001101 O
b1110001101000 N
b100010101010101 M
b1001001000101 L
b1000110000011 K
b1001001100001 J
b1011010011010000 I
b101010110001 B
b1111100100100111 A
14
#130000
04
#135000
1h
b111000111011101001001100001001110000 e
b111000111011101001001100001001110000 p
b101110111100000010011011001010000011 d
b101110111100000010011011001010000011 o
b10011011000101101100100110000101011100 c
b10011011000101101100100110000101011100 n
b101100110001001101010010010111010 b
b101100110001001101010010010111010 m
b10001110101000111010101010100010 a
b10001110101000111010101010100010 l
b1001011111101010000110111101001011001 `
b1001011111101010000110111101001011001 k
b11001010011100001100111111001011 _
b11001010011100001100111111001011 j
b111111111111111110110110000011010111101001100000 ^
b111111111111111110110110000011010111101001100000 i
b1100011101111000 H
b1100001101101 G
b1100001100100000 F
b1100101010110111 E
b1101100000010010 D
b1111101010111101 C
b1101100101110100 P
b1011111101100 O
b1100101100010101 N
b1101001010000100 M
b1100000111010010 L
b100110001001110 K
b1111011001101001 J
b101011110111 I
b1110101010110101 B
b1110001100101010 A
14
#140000
04
#145000
b1011000001111000110011101111111000101 e
b1011000001111000110011101111111000101 p
b111111111110111101111110110011011111011000111101 d
b111111111110111101111110110011011111011000111101 o
b111001110100111000000011001110110 c
b111001110100111000000011001110110 n
b1101110111010110111100000101011010010 b
b1101110111010110111100000101011010010 m
b10110010110011110000001001001110110110 a
b10110010110011110000001001001110110110 l
b1010110001001101111111001100001100001 `
b1010110001001101111111001100001100001 k
b111111111100001110111011101001000001111110000001 _
b111111111100001110111011101001000001111110000001 j
b111010011110111100101100010100111010 ^
b111010011110111100101100010100111010 i
1'
b1100010001101110 H
b1110000000100110 G
b1100010010101000 F
b1101111000010001 E
b1011100000000000 D
b10010101100010 C
b1000001100001 P
b100101001111110 O
b1111101100011011 N
b100101001110010 M
b1100000011100100 L
b11010011001101 K
b1100000100001101 J
b11001000100111 I
b1110101101111110 B
b1101000010011000 A
14
#150000
04
#155000
b111111111111000111011111001001111000101011110111 e
b111111111111000111011111001001111000101011110111 p
b111111111111111011110000110011010111010011100011 d
b111111111111111011110000110011010111010011100011 o
b111010001001000011000101010000110100 c
b111010001001000011000101010000110100 n
b1101101011000011001101011011011110101 b
b1101101011000011001101011011011110101 m
b111111111111110111011001111011101000110111110010 a
b111111111111110111011001111011101000110111110010 l
b111111111110110110000110011001110010100110000010 `
b111111111110110110000110011001110010100110000010 k
b111001111100011101111111101011111010 _
b111001111100011101111111101011111010 j
b111111111110111011100000111101111110110111111001 ^
b111111111110111011100000111101111110110111111001 i
1#"
b1100111010000000 H
b1101111100011001 G
b10000111001101 F
b1100011001111000 E
b1101000101000 D
b1110001110100111 C
b100001100010011 P
b101111011101 O
b1100000010001110 N
b1110100001 M
b1101101101011000 L
b101001101000 K
b1111000010010 J
b1011101111100110 I
b1111001010011011 B
b1110001110010000 A
14
#160000
04
#165000
b10010101111111010111111101101100100 ""
b10010101111111010111111101101100100 )"
b100111100000011000000101101101100101 !"
b100111100000011000000101101101100101 ("
b111111111111111001100100111000101100001110011110 ~
b111111111111111001100100111000101100001110011110 '"
b101100110100100100011101000 }
b101100110100100100011101000 &"
1$"
b111111111110001011001100001101010001011000010000 e
b111111111110001011001100001101010001011000010000 p
b111111111111011101001000011101001001010010111111 d
b111111111111011101001000011101001001010010111111 o
b111111111110110100100001101111001101101001110111 c
b111111111110110100100001101111001101101001110111 n
b111111111110011100000000000110101011011101101000 b
b111111111110011100000000000110101011011101101000 m
b1001110110110011111010101110110000011 a
b1001110110110011111010101110110000011 l
b111111111111011010111000000100100001111001011101 `
b111111111111011010111000000100100001111001011101 k
b111111111101100000010111111101101010100011101010 _
b111111111101100000010111111101101010100011101010 j
b100001010111101110111011000111000001 ^
b100001010111101110111011000111000001 i
b11011000100000 H
b1111011110111110 G
b100011010111101 F
b1101010010111100 E
b101101001010 D
b111001100001 C
b101111100110 P
b1101100010111111 O
b100100000110111 N
b10010010111111 M
b1101110000010001 L
b1101111001000 K
b1011001010011100 J
b11001101100101 I
b1011010100000101 B
b110110000100 A
14
#170000
04
#175000
b111111111110000011101010001101101110100010101101 e
b111111111110000011101010001101101110100010101101 p
b1110000010110001011111011000100111010 d
b1110000010110001011111011000100111010 o
b1101111000111100010101101000011010101 c
b1101111000111100010101101000011010101 n
b11000000011000100011110101010001 b
b11000000011000100011110101010001 m
b111111111111100111010100010100011100001011101111 a
b111111111111100111010100010100011100001011101111 l
b111111111111110111000111011100000000111010101010 `
b111111111111110111000111011100000000111010101010 k
b111111111110001000111101101001111111100110011111 _
b111111111110001000111101101001111111100110011111 j
b111111111110100110110100010101011001010101100010 ^
b111111111110100110110100010101011001010101100010 i
1%"
b11111100100010101010011010001100011111 ""
b11111100100010101010011010001100011111 )"
b111111111101101100110101001111111001001010011010 !"
b111111111101101100110101001111111001001010011010 ("
b11101101110000010010010001101101110 ~
b11101101110000010010010001101101110 '"
b111111111111111011100100011010011010110010111011 }
b111111111111111011100100011010011010110010111011 &"
b1110000011111111 H
b1011010011100000 G
b1000010011111 F
b1111010000011011 E
b1011001111111 D
b100011101000011 C
b110100 P
b10001100110010 O
b1111000010101 N
b11101110100101 M
b110010110010 L
b11101110001100 K
b1110111111010101 J
b11000100000111 I
b1110000001011010 B
b1111100101011 A
14
#180000
04
#185000
b10110000100001100111101100100000000 ""
b10110000100001100111101100100000000 )"
b111111111111100101101011010110100111001110111110 !"
b111111111111100101101011010110100111001110111110 ("
b11000101101000001101011011010010111 ~
b11000101101000001101011011010010111 '"
b111111111111101101111110010111111001010101010101 }
b111111111111101101111110010111111001010101010101 &"
1&
b111111111111010001001011110111110111111000101000 e
b111111111111010001001011110111110111111000101000 p
b1100111111110100111110011111110110001 d
b1100111111110100111110011111110110001 o
b111111111110110001010000000101010100011111101110 c
b111111111110110001010000000101010100011111101110 n
b111111111111001011101111000110000100100000010110 b
b111111111111001011101111000110000100100000010110 m
b10011010010001000110110111000111101 a
b10011010010001000110110111000111101 l
b111111111110011011001100001110100011110100111001 `
b111111111110011011001100001110100011110100111001 k
b111111111110000100000100100000001101101111111011 _
b111111111110000100000100100000001101101111111011 j
b111111111110000010111011101011001111010000011101 ^
b111111111110000010111011101011001111010000011101 i
b11110100111100 H
b1111010111111011 G
b1110101101001111 F
b11110111110101 E
b1111010101001001 D
b1011111000100 C
b1011111110000 P
b101110011101 O
b111000110010 N
b101011101110 M
b1110000001111100 L
b1100011100001011 K
b1111010011011111 J
b1001001110000 I
b1101111100110100 B
b1100100000110 A
14
#190000
04
#195000
b111111111111101111111111100111100100111110000110 e
b111111111111101111111111100111100100111110000110 p
b111111111111111110010111100000110101100000000011 d
b111111111111111110010111100000110101100000000011 o
b1100001011101110011011111000001000110 c
b1100001011101110011011111000001000110 n
b110010000011000000101111100000000 b
b110010000011000000101111100000000 m
b111111111111000101110001011000110010110111011110 a
b111111111111000101110001011000110010110111011110 l
b111111111111001111111000010010110000010001000110 `
b111111111111001111111000010010110000010001000110 k
b111111111110100011010111011001000011110100111000 _
b111111111110100011010111011001000011110100111000 j
b111111111111110100000011000111111100000111100100 ^
b111111111111110100000011000111111100000111100100 i
b10101000010000011001111000011100110 ""
b10101000010000011001111000011100110 )"
b111111111110000011111100010101011011110110001010 !"
b111111111110000011111100010101011011110110001010 ("
b111111111111100010000010100111011110100000001000 ~
b111111111111100010000010100111011110100000001000 '"
b1001111111111111110110001111011100001 }
b1001111111111111110110001111011100001 &"
b111111111111101101111110010111111001010101010101 -"
b11000101101000001101011011010010111 ,"
b111111111111100101101011010110100111001110111110 +"
b10110000100001100111101100100000000 *"
b1 ?"
b111111111111111101001111011010000100010101111000 >"
b111111111111111101001111011010000100010101111000 C"
b111111111111111111111111100100110101010010010010 ="
b111111111111111111111111100100110101010010010010 B"
b1011110010101111 H
b1111000110000000 G
b101011001100 F
b11000000000100 E
b11011001100000 D
b1100010100111001 C
b1001000001110 P
b1100101101000100 O
b11100110000101 N
b1100100100111010 M
b100110111110001 L
b10000101111001 K
b100000110001011 J
b1100000110001010 I
b1111111011011 B
b10111111010111 A
14
#200000
04
#205000
b1000000100001000011110011010001000 >"
b1000000100001000011110011010001000 C"
b10101011111000111011100001100 ="
b10101011111000111011100001100 B"
b11 ?"
b1001111111111111110110001111011100001 -"
b111111111111100010000010100111011110100000001000 ,"
b111111111110000011111100010101011011110110001010 +"
b10101000010000011001111000011100110 *"
b11000101101000001101011011010010111 0"
b111111111111100101101011010110100111001110111110 /"
b10110000100001100111101100100000000 ."
b111111111111101000011000001001001011000000010011 ""
b111111111111101000011000001001001011000000010011 )"
b111111111110001011011100010011100110001001001101 !"
b111111111110001011011100010011100110001001001101 ("
b111111111101111010110101111000001011100000011110 ~
b111111111101111010110101111000001011100000011110 '"
b111111111110010001111011000011010110001111100100 }
b111111111110010001111011000011010110001111100100 &"
b1001110001011111000001111010001100111 e
b1001110001011111000001111010001100111 p
b1010110000001111000101010010100011100 d
b1010110000001111000101010010100011100 o
b1100111000010101101011101100000011101 c
b1100111000010101101011101100000011101 n
b1101100000011101011101111011000101001 b
b1101100000011101011101111011000101001 m
b111101101011000001100001111000011000 a
b111101101011000001100001111000011000 l
b10011100101100111010100110110000 `
b10011100101100111010100110110000 k
b1011111010101010010000000110100010011 _
b1011111010101010010000000110100010011 j
b1000101111100110110110011101011010110 ^
b1000101111100110110110011101011010110 i
b1101010011011101 H
b10110111100011 G
b1011010011000101 F
b1101000100100000 E
b1011101001011110 D
b1101001001 C
b1100110010110010 P
b10001111101111 O
b1110101000100000 N
b1011001110110101 M
b11011110011000 L
b100101001001100 K
b11100100111111 J
b10001010110010 I
b1111100010111110 B
b1111011011001 A
14
#210000
04
#215000
b111001001101100101011010110100010011 e
b111001001101100101011010110100010011 p
b110111001011000011110010000001110010 d
b110111001011000011110010000001110010 o
b101010110101110000110101100110001101 c
b101010110101110000110101100110001101 n
b111111111110110011010100001100111000001111101111 b
b111111111110110011010100001100111000001111101111 m
b111111111111000100011111111101010111010111111110 a
b111111111111000100011111111101010111010111111110 l
b111111111111111110111100011010101011001000100001 `
b111111111111111110111100011010101011001000100001 k
b111111111110110111111010100001100100110101000100 _
b111111111110110111111010100001100100110101000100 j
b111111111111000000101010011101101001011011110110 ^
b111111111111000000101010011101101001011011110110 i
b111111111111011011110010010100010010010101011011 ""
b111111111111011011110010010100010010010101011011 )"
b111111111101010110110111011011100001110100011000 !"
b111111111101010110110111011011100001110100011000 ("
b111111111101111110101111100001001000000010001110 ~
b111111111101111110101111100001001000000010001110 '"
b10011101111111110011000001101010000000 }
b10011101111111110011000001101010000000 &"
b111111111110010001111011000011010110001111100100 -"
b111111111101111010110101111000001011100000011110 ,"
b111111111110001011011100010011100110001001001101 +"
b111111111111101000011000001001001011000000010011 *"
b111111111111100010000010100111011110100000001000 0"
b111111111110000011111100010101011011110110001010 /"
b10101000010000011001111000011100110 ."
1@"
b111111111111111000010010101101111011111001101101 >"
b111111111111111000010010101101111011111001101101 C"
b1010111011001111100010111010100 ="
b1010111011001111100010111010100 B"
b1000001110111100001001100110000001100001110 R"
b1101001010101010 H
b1111000000011001 G
b1110001010011110 F
b10001111110100 E
b111000001100 D
b10110010001 C
b1000111001110 P
b100001111011000 O
b1101011100001100 N
b110000010001 M
b1001011111011 L
b1100101110011100 K
b1011011011011010 J
b1111111110000 I
b100001011100011 B
b1110011111010111 A
14
#220000
04
#225000
b10000011101111000010 P"
b10000011101111000010 U"
b111001110001000110101000101100100101 >"
b111001110001000110101000101100100101 C"
b111111111111111010101011000010001000000001010100 ="
b111111111111111010101011000010001000000001010100 B"
1A"
b10011101111111110011000001101010000000 -"
b111111111101111110101111100001001000000010001110 ,"
b111111111101010110110111011011100001110100011000 +"
b111111111111011011110010010100010010010101011011 *"
b111111111101111010110101111000001011100000011110 0"
b111111111110001011011100010011100110001001001101 /"
b111111111111101000011000001001001011000000010011 ."
b111111111111001011000011000101010100001011010110 ""
b111111111111001011000011000101010100001011010110 )"
b111111111110011100000101101101010000010111111001 !"
b111111111110011100000101101101010000010111111001 ("
b10111000011011100001110010110001 ~
b10111000011011100001110010110001 '"
b111111111111100010100010011010100100101101011011 }
b111111111111100010100010011010100100101101011011 &"
b1100111001100001001000001100110100011 e
b1100111001100001001000001100110100011 p
b111111111110110011100110011110111010011010111111 d
b111111111110110011100110011110111010011010111111 o
b11000110010100110011101110100011 c
b11000110010100110011101110100011 n
b1010101111010110110010111010010111011 b
b1010101111010110110010111010010111011 m
b1100101100011111111011011111000001000 a
b1100101100011111111011011111000001000 l
b111111111111111011010110100110111100000011110010 `
b111111111111111011010110100110111100000011110010 k
b10010101100000011010010001010011111110 _
b10010101100000011010010001010011111110 j
b111111111111110001110111011111110111111100001110 ^
b111111111111110001110111011111110111111100001110 i
b1111111111111111111111111111001011111010000001101010101111110101100010110100 R"
b1111100011000100 H
b1110000000111 G
b1011110001100010 F
b1011010110111100 E
b1100110111110001 D
b1110110011100111 C
b1111010101101 P
b1110001010011000 O
b1111010111000001 N
b1011101011110010 M
b1101100110011111 L
b1101010101101001 K
b1111111010000011 J
b10010101101110 I
b100010101101110 B
b1100111011111000 A
14
#230000
04
#235000
b111111111101101000101111100011101011110001100000 e
b111111111101101000101111100011101011110001100000 p
b111111111111011011010010000001110010111000010110 d
b111111111111011011010010000001110010111000010110 o
b111111111111001100011110100011110110111001100110 c
b111111111111001100011110100011110110111001100110 n
b101000110110000101110100011110010001 b
b101000110110000101110100011110010001 m
b10111111001110010010111111010010010001 a
b10111111001110010010111111010010010001 l
b101001000000100000011011101111111101 `
b101001000000100000011011101111111101 k
b111111111110100101001011010110100000101110111111 _
b111111111110100101001011010110100000101110111111 j
b10110101100101111010110001110010100 ^
b10110101100101111010110001110010100 i
b1010011101001000001101111011100000100 ""
b1010011101001000001101111011100000100 )"
b1011101011010010010110001011100110101 !"
b1011101011010010010110001011100110101 ("
b110110100100101001011010111011111 ~
b110110100100101001011010111011111 '"
b1001101111101100001011100101101101010 }
b1001101111101100001011100101101101010 &"
b111111111111100010100010011010100100101101011011 -"
b10111000011011100001110010110001 ,"
b111111111110011100000101101101010000010111111001 +"
b111111111111001011000011000101010100001011010110 *"
b111111111101111110101111100001001000000010001110 0"
b111111111101010110110111011011100001110100011000 /"
b111111111111011011110010010100010010010101011011 ."
1%
b111111111111000100101000001111110010011000100100 >"
b111111111111000100101000001111110010011000100100 C"
b111111111111001000101010111101011111001110111000 ="
b111111111111001000101010111101011111001110111000 B"
b111111111111111111111110010111110100000011010101 P"
b111111111111111111111110010111110100000011010101 U"
b1111111111111111111111111100101100000101011101110101001111101101000001101100 R"
b10111010010001 H
b1101110010011110 G
b11101000111010 F
b1010000100111 E
b11001110111001 D
b110111001100 C
b1110110111001011 P
b1110001111100001 O
b10100001011111 N
b1011010100011011 M
b1101101100000101 L
b1100101111011 K
b1101001111000100 J
b100110010011101 I
b11110111111010 B
b10110110111 A
14
#240000
04
