simulation/waveform/tb_decompose_L14.vcd
$date
	Sat Jan 31 16:23:11 2026
$end
$version
	Icarus Verilog
$end
$timescale
	1ps
$end
$scope module tb_decompose_L14 $end
$var wire 1 ! l4_dout_valid $end
$var wire 1 " l3_dout_valid $end
$var wire 1 # l2_dout_valid $end
$var wire 1 $ l1_dout_valid $end
$var parameter 32 % COEF_WIDTH $end
$var parameter 32 & DATA_WIDTH $end
$var parameter 25 ' DEC_H0 $end
$var parameter 25 ( DEC_H1 $end
$var parameter 25 ) DEC_H2 $end
$var parameter 25 * DEC_H3 $end
$var parameter 25 + DEC_H4 $end
$var parameter 25 , DEC_H5 $end
$var parameter 25 - DEC_H6 $end
$var parameter 25 . DEC_H7 $end
$var parameter 32 / INTERNAL_WIDTH $end
$var parameter 32 0 T $end
$var reg 1 1 clk $end
$var reg 1 2 din_valid $end
$var reg 1 3 rst_n $end
$var integer 32 4 file_handle [31:0] $end
$var integer 32 5 i [31:0] $end
$var integer 32 6 out_file [31:0] $end
$var integer 32 7 scan_ret [31:0] $end
$scope module u_L1 $end
$var wire 1 1 clk $end
$var wire 16 8 din_0 [15:0] $end
$var wire 16 9 din_1 [15:0] $end
$var wire 16 : din_10 [15:0] $end
$var wire 16 ; din_11 [15:0] $end
$var wire 16 < din_12 [15:0] $end
$var wire 16 = din_13 [15:0] $end
$var wire 16 > din_14 [15:0] $end
$var wire 16 ? din_15 [15:0] $end
$var wire 16 @ din_2 [15:0] $end
$var wire 16 A din_3 [15:0] $end
$var wire 16 B din_4 [15:0] $end
$var wire 16 C din_5 [15:0] $end
$var wire 16 D din_6 [15:0] $end
$var wire 16 E din_7 [15:0] $end
$var wire 16 F din_8 [15:0] $end
$var wire 16 G din_9 [15:0] $end
$var wire 1 2 din_valid $end
$var wire 1 3 rst_n $end
$var parameter 32 H COEF_FRAC $end
$var parameter 32 I COEF_WIDTH $end
$var parameter 32 J DATA_WIDTH $end
$var parameter 25 K DEC_H0 $end
$var parameter 25 L DEC_H1 $end
$var parameter 25 M DEC_H2 $end
$var parameter 25 N DEC_H3 $end
$var parameter 25 O DEC_H4 $end
$var parameter 25 P DEC_H5 $end
$var parameter 25 Q DEC_H6 $end
$var parameter 25 R DEC_H7 $end
$var parameter 32 S INTERNAL_WIDTH $end
$var parameter 33 T MULT_WIDTH $end
$var reg 48 U a1_0 [47:0] $end
$var reg 48 V a1_1 [47:0] $end
$var reg 48 W a1_2 [47:0] $end
$var reg 48 X a1_3 [47:0] $end
$var reg 48 Y a1_4 [47:0] $end
$var reg 48 Z a1_5 [47:0] $end
$var reg 48 [ a1_6 [47:0] $end
$var reg 48 \ a1_7 [47:0] $end
$var reg 1 $ dout_valid $end
$var reg 1 ] has_data $end
$var reg 1 ^ valid_s1 $end
$var reg 1 _ valid_s2 $end
$upscope $end
$scope module u_L2 $end
$var wire 48 ` a1_0 [47:0] $end
$var wire 48 a a1_1 [47:0] $end
$var wire 48 b a1_2 [47:0] $end
$var wire 48 c a1_3 [47:0] $end
$var wire 48 d a1_4 [47:0] $end
$var wire 48 e a1_5 [47:0] $end
$var wire 48 f a1_6 [47:0] $end
$var wire 48 g a1_7 [47:0] $end
$var wire 1 1 clk $end
$var wire 1 $ din_valid $end
$var wire 1 3 rst_n $end
$var parameter 32 h COEF_FRAC $end
$var parameter 32 i COEF_WIDTH $end
$var parameter 25 j DEC_H0 $end
$var parameter 25 k DEC_H1 $end
$var parameter 25 l DEC_H2 $end
$var parameter 25 m DEC_H3 $end
$var parameter 25 n DEC_H4 $end
$var parameter 25 o DEC_H5 $end
$var parameter 25 p DEC_H6 $end
$var parameter 25 q DEC_H7 $end
$var parameter 32 r INTERNAL_WIDTH $end
$var parameter 33 s MULT_WIDTH $end
$var reg 48 t a2_0 [47:0] $end
$var reg 48 u a2_1 [47:0] $end
$var reg 48 v a2_2 [47:0] $end
$var reg 48 w a2_3 [47:0] $end
$var reg 1 # dout_valid $end
$var reg 1 x has_data $end
$var reg 1 y valid_s1 $end
$var reg 1 z valid_s2 $end
$upscope $end
$scope module u_L3 $end
$var wire 48 { a2_0 [47:0] $end
$var wire 48 | a2_1 [47:0] $end
$var wire 48 } a2_2 [47:0] $end
$var wire 48 ~ a2_3 [47:0] $end
$var wire 48 !" a2_m1 [47:0] $end
$var wire 48 "" a2_m2 [47:0] $end
$var wire 48 #" a2_m3 [47:0] $end
$var wire 48 $" a2_m4 [47:0] $end
$var wire 48 %" a2_m5 [47:0] $end
$var wire 48 &" a2_m6 [47:0] $end
$var wire 48 '" a2_m7 [47:0] $end
$var wire 1 1 clk $end
$var wire 1 # din_valid $end
$var wire 1 3 rst_n $end
$var parameter 32 (" COEF_FRAC $end
$var parameter 32 )" COEF_WIDTH $end
$var parameter 25 *" DEC_H0 $end
$var parameter 25 +" DEC_H1 $end
$var parameter 25 ," DEC_H2 $end
$var parameter 25 -" DEC_H3 $end
$var parameter 25 ." DEC_H4 $end
$var parameter 25 /" DEC_H5 $end
$var parameter 25 0" DEC_H6 $end
$var parameter 25 1" DEC_H7 $end
$var parameter 32 2" INTERNAL_WIDTH $end
$var parameter 33 3" MULT_WIDTH $end
$var reg 48 4" a3_0 [47:0] $end
$var reg 48 5" a3_1 [47:0] $end
$var reg 1 " dout_valid $end
$var reg 2 6" has_data [1:0] $end
$var reg 1 7" valid_s1 $end
$var reg 1 8" valid_s2 $end
$upscope $end
$scope module u_L4 $end
$var wire 48 9" a3_0 [47:0] $end
$var wire 48 :" a3_1 [47:0] $end
$var wire 1 1 clk $end
$var wire 1 " din_valid $end
$var wire 1 3 rst_n $end
$var parameter 32 ;" COEF_FRAC $end
$var parameter 32 <" COEF_WIDTH $end
$var parameter 25 =" DEC_H0 $end
$var parameter 25 >" DEC_H1 $end
$var parameter 25 ?" DEC_H2 $end
$var parameter 25 @" DEC_H3 $end
$var parameter 25 A" DEC_H4 $end
$var parameter 25 B" DEC_H5 $end
$var parameter 25 C" DEC_H6 $end
$var parameter 25 D" DEC_H7 $end
$var parameter 32 E" INTERNAL_WIDTH $end
$var parameter 33 F" MULT_WIDTH $end
$var reg 48 G" a4_0 [47:0] $end
$var reg 1 ! dout_valid $end
$var reg 4 H" has_data [3:0] $end
$var reg 76 I" sum_s2 [75:0] $end
$var reg 1 J" valid_s1 $end
$var reg 1 K" valid_s2 $end
$upscope $end
$upscope $end
$enddefinitions $end
$comment Show the parameter values. $end
$dumpall
b1001001 F"
b110000 E"
b1000001111111100011 D"
b1111111100110001011111110 C"
b1111100110100110011000110 B"
b1001100010000000110100 A"
b11001101110000011101001 @"
b1111111011000111111000 ?"
b1111111000011010011100111 >"
b1111101100100110101001111 ="
b11001 <"
b10111 ;"
b1001001 3"
b110000 2"
b1000001111111100011 1"
b1111111100110001011111110 0"
b1111100110100110011000110 /"
b1001100010000000110100 ."
b11001101110000011101001 -"
b1111111011000111111000 ,"
b1111111000011010011100111 +"
b1111101100100110101001111 *"
b11001 )"
b10111 ("
b1001001 s
b110000 r
b1000001111111100011 q
b1111111100110001011111110 p
b1111100110100110011000110 o
b1001100010000000110100 n
b11001101110000011101001 m
b1111111011000111111000 l
b1111111000011010011100111 k
b1111101100100110101001111 j
b11001 i
b10111 h
b101001 T
b110000 S
b1000001111111100011 R
b1111111100110001011111110 Q
b1111100110100110011000110 P
b1001100010000000110100 O
b11001101110000011101001 N
b1111111011000111111000 M
b1111111000011010011100111 L
b1111101100100110101001111 K
b10000 J
b11001 I
b10111 H
b1010 0
b110000 /
b1000001111111100011 .
b1111111100110001011111110 -
b1111100110100110011000110 ,
b1001100010000000110100 +
b11001101110000011101001 *
b1111111011000111111000 )
b1111111000011010011100111 (
b1111101100100110101001111 '
b10000 &
b11001 %
$end
#0
$dumpvars
0K"
0J"
bx I"
b0 H"
b0 G"
b0 :"
b0 9"
08"
07"
b0 6"
b0 5"
b0 4"
b0 '"
b0 &"
b0 %"
b0 $"
b0 #"
b0 ""
b0 !"
b0 ~
b0 }
b0 |
b0 {
0z
0y
0x
b0 w
b0 v
b0 u
b0 t
b0 g
b0 f
b0 e
b0 d
b0 c
b0 b
b0 a
b0 `
0_
0^
0]
b0 \
b0 [
b0 Z
b0 Y
b0 X
b0 W
b0 V
b0 U
b0 G
b0 F
b0 E
b0 D
b0 C
b0 B
b0 A
b0 @
b0 ?
b0 >
b0 =
b0 <
b0 ;
b0 :
b0 9
b0 8
bx 7
b10000000000000000000000000000100 6
b10000 5
b10000000000000000000000000000011 4
03
02
01
0$
0#
0"
0!
$end
#5000
11
#10000
01
#15000
b0 I"
11
#20000
01
#25000
11
#30000
01
#35000
11
#40000
01
#45000
11
#50000
01
#55000
11
#60000
01
#65000
11
#70000
01
#75000
11
#80000
01
#85000
11
#90000
01
#95000
11
#100000
01
13
#105000
12
b10000 7
b11010001110111 ?
b11000110001111 >
b10111010001001 =
b10101101100111 <
b10100000101010 ;
b10010011010011 :
b10000101100111 G
b1110111100101 F
b1101001010001 E
b1011010101101 D
b1001011111011 C
b111100111101 B
b101101110110 A
b11110101000 @
b1111010101 9
11
#110000
01
#115000
1]
b100111000000111 ?
b100110110111111 >
b100110101000111 =
b100110010011111 <
b100101111001000 ;
b100101011000010 :
b100100110001110 G
b100100000101101 F
b100011010011111 E
b100010011100110 D
b100001100000010 C
b100000011110101 B
b11111011000000 A
b11110001100100 @
b11100111100011 9
b11011100111110 8
11
#120000
01
#125000
1^
b11100111100011 ?
b11110001100100 >
b11111011000000 =
b100000011110101 <
b100001100000010 ;
b100010011100110 :
b100011010011111 G
b100100110001110 E
b100101011000010 D
b100101111001000 C
b100110010011111 B
b100110101000111 A
b100110110111111 @
b100111000000111 9
b100111000100000 8
11
#130000
01
#135000
1_
b1110001101111011100110110110101010001 \
b1110001101111011100110110110101010001 g
b1011110100111110111110100100000110111 [
b1011110100111110111110100100000110111 f
b1001010100101110111100101110000001101 Z
b1001010100101110111100101110000001101 e
b110101110110001001011000000000000100 Y
b110101110110001001011000000000000100 d
b100000110101000000111000010000111100 X
b100000110101000000111000010000111100 c
b1010110010101001001100101111101010 W
b1010110010101001001100101111101010 b
b111111111111111110100111001101101001111000001011 V
b111111111111111110100111001101101001111000001011 a
b1111010101 ?
b11110101000 >
b101101110110 =
b111100111101 <
b1001011111011 ;
b1011010101101 :
b1101001010001 G
b1110111100101 F
b10000101100111 E
b10010011010011 D
b10100000101010 C
b10101101100111 B
b10111010001001 A
b11000110001111 @
b11010001110111 9
b11011100111110 8
11
#140000
01
#145000
b11010110011000011011001110101111110001 \
b11010110011000011011001110101111110001 g
b11010000000110011101100110011011001111 [
b11010000000110011101100110011011001111 f
b11000111110100011100100101110111101001 Z
b11000111110100011100100101110111101001 e
b10111101100111001111111011010011000011 Y
b10111101100111001111111011010011000011 d
b10110001100101010000110010011011001011 X
b10110001100101010000110010011011001011 c
b10100011110101101110111111010101010101 W
b10100011110101101110111111010101010101 b
b10010100100001000000110001110110000010 V
b10010100100001000000110001110110000010 a
b10000011110000011000001111000111010011 U
b10000011110000011000001111000111010011 `
1$
b1100101110001001 ?
b1100111001110001 >
b1101000101110111 =
b1101010010011001 <
b1101011111010110 ;
b1101101100101101 :
b1101111010011001 G
b1110001000011011 F
b1110010110101111 E
b1110100101010011 D
b1110110100000101 C
b1111000011000011 B
b1111010010001010 A
b1111100001011000 @
b1111110000101011 9
b0 8
11
#150000
01
#155000
b10111101011100010001000011100010001000 \
b10111101011100010001000011100010001000 g
b11000111101011010100011111011010111100 [
b11000111101011010100011111011010111100 f
b11001111111111010001100010000000011000 Z
b11001111111111010001100010000000011000 e
b11010110010011001101010010000011101010 Y
b11010110010011001101010010000011101010 d
b11011010100011000100101111000100101000 X
b11011010100011000100101111000100101000 c
b11011100101100000110111100111111101010 W
b11011100101100000110111100111111101010 b
b11011100101101001101100000101001110001 V
b11011100101101001101100000101001110001 a
b11011010100110001011001010111000111010 U
b11011010100110001011001010111000111010 `
1x
b1011000111111001 ?
b1011001001000001 >
b1011001010111001 =
b1011001101100001 <
b1011010000111000 ;
b1011010100111110 :
b1011011001110010 G
b1011011111010011 F
b1011100101100001 E
b1011101100011010 D
b1011110011111110 C
b1011111100001011 B
b1100000101000000 A
b1100001110011100 @
b1100011000011101 9
b1100100011000010 8
11
#160000
01
#165000
b101111001001110000001000101000111011 w
b101111001001110000001000101000111011 ~
b111111111111111111001100111100111001001010110111 v
b111111111111111111001100111100111001001010110111 }
b111111111111111111001110010011011101101001111010 u
b111111111111111111001110010011011101101001111010 |
1y
b110101100001011010100001011100110010 \
b110101100001011010100001011100110010 g
b1001010010001101111011011000001100111 [
b1001010010001101111011011000001100111 f
b1011110010100100100001100100100010110 Z
b1011110010100100100001100100100010110 e
b1110001011101000111000011101110000111 Y
b1110001011101000111000011101110000111 d
b10000011011111010011000100110101011111 X
b10000011011111010011000100110101011111 c
b10010100010001000101010010110011100001 W
b10010100010001000101010010110011100001 b
b10100011100111011010101011010111011001 V
b10100011100111011010101011010111011001 a
b10110001011000100011100101000100011000 U
b10110001011000100011100101000100011000 `
b1100011000011101 ?
b1100001110011100 >
b1100000101000000 =
b1011111100001011 <
b1011110011111110 ;
b1011101100011010 :
b1011100101100001 G
b1011011001110010 E
b1011010100111110 D
b1011010000111000 C
b1011001101100001 B
b1011001010111001 A
b1011001001000001 @
b1011000111111001 9
b1011000111100000 8
11
#170000
01
#175000
b111111111110001110010000100011001001001010101111 \
b111111111110001110010000100011001001001010101111 g
b111111111110100001011000001000001011011111001001 [
b111111111110100001011000001000001011011111001001 f
b111111111110110101011010001000011010001111110011 Z
b111111111110110101011010001000011010001111110011 e
b111111111111001010001001110110100111111111111100 Y
b111111111111001010001001110110100111111111111100 d
b111111111111011111011010110010101010110010100011 X
b111111111111011111011010110010101010110010100011 c
b111111111111110100111111100110111100001100100110 W
b111111111111110100111111100110111100001100100110 b
b1010101011000100010110010001001101 V
b1010101011000100010110010001001101 a
b100000010000000101111100001101011000 U
b100000010000000101111100001101011000 `
1z
b11110111110011001111101001111010111101 w
b11110111110011001111101001111010111101 ~
b11011100100000110101110101001001000000 v
b11011100100000110101110101001001000000 }
b110000101111111101101010110001001100 u
b110000101111111101101010110001001100 |
b111111111111110110000001000111010101101111001000 t
b111111111111110110000001000111010101101111001000 {
b1111110000101011 ?
b1111100001011000 >
b1111010010001010 =
b1111000011000011 <
b1110110100000101 ;
b1110100101010011 :
b1110010110101111 G
b1110001000011011 F
b1101111010011001 E
b1101101100101101 D
b1101011111010110 C
b1101010010011001 B
b1101000101110111 A
b1100111001110001 @
b1100101110001001 9
b1100100011000010 8
11
#180000
01
#185000
b100110100111111011011111000000101011011 w
b100110100111111011011111000000101011011 ~
b100111000001001101101001111110100001100 v
b100111000001001101101001111110100001100 }
b100101111010100000101111001101110101000 u
b100101111010100000101111001101110101000 |
b100011010110100100010011011000010011011 t
b100011010110100100010011011000010011011 {
1#
b111111111100101001100111100100110001010000001111 \
b111111111100101001100111100100110001010000001111 g
b111111111100101111111001100010011001100100110001 [
b111111111100101111111001100010011001100100110001 f
b111111111100111000001011100011011010001000010111 Z
b111111111100111000001011100011011010001000010111 e
b111111111101000010011000110000000100101100111101 Y
b111111111101000010011000110000000100101100111101 d
b111111111101001110011010101111001101100100110101 X
b111111111101001110011010101111001101100100110101 c
b111111111101011100001010010001000000101010101011 W
b111111111101011100001010010001000000101010101011 b
b111111111101101011011110111111001110001001111110 V
b111111111101101011011110111111001110001001111110 a
b111111111101111100001111100111110000111000101101 U
b111111111101111100001111100111110000111000101101 `
b11010001110111 ?
b11000110001111 >
b10111010001001 =
b10101101100111 <
b10100000101010 ;
b10010011010011 :
b10000101100111 G
b1110111100101 F
b1101001010001 E
b1011010101101 D
b1001011111011 C
b111100111101 B
b101101110110 A
b11110101000 @
b1111010101 9
b0 8
11
#190000
01
#195000
b111111111101000010100011101110111100011101111000 \
b111111111101000010100011101110111100011101111000 g
b111111111100111000010100101011100000100101000100 [
b111111111100111000010100101011100000100101000100 f
b111111111100110000000000101110011101111111101000 Z
b111111111100110000000000101110011101111111101000 e
b111111111100101001101100110010101101111100010110 Y
b111111111100101001101100110010101101111100010110 d
b111111111100100101011100111011010000111011011000 X
b111111111100100101011100111011010000111011011000 c
b111111111100100011010011111001000011000000010110 W
b111111111100100011010011111001000011000000010110 b
b111111111100100011010010110010011111010110001111 V
b111111111100100011010010110010011111010110001111 a
b111111111100100101011001110100110101000111000110 U
b111111111100100101011001110100110101000111000110 `
b10111001100000111010110011011100010101 w
b10111001100000111010110011011100010101 ~
b11100111000001000010001111111001101010 v
b11100111000001000010001111111001101010 }
b100001011101000001110111111001111110011 u
b100001011101000001110111111001111110011 |
b100100101111101000110010010001100011100 t
b100100101111101000110010010001100011100 {
b100011010110100100010011011000010011011 $"
b100101111010100000101111001101110101000 #"
b100111000001001101101001111110100001100 ""
b100110100111111011011111000000101011011 !"
b1 6"
b101010101110010101010101011 5"
b101010101110010101010101011 :"
b100111000000111 ?
b100110110111111 >
b100110101000111 =
b100110010011111 <
b100101111001000 ;
b100101011000010 :
b100100110001110 G
b100100000101101 F
b100011010011111 E
b100010011100110 D
b100001100000010 C
b100000011110101 B
b11111011000000 A
b11110001100100 @
b11100111100011 9
b11011100111110 8
11
#200000
01
#205000
b111111111111101000111000010110001110001010110000 5"
b111111111111101000111000010110001110001010110000 :"
b110000011001111101011000101101 4"
b110000011001111101011000101101 9"
b11 6"
b100100101111101000110010010001100011100 $"
b100001011101000001110111111001111110011 #"
b11100111000001000010001111111001101010 ""
b10111001100000111010110011011100010101 !"
b100101111010100000101111001101110101000 '"
b100111000001001101101001111110100001100 &"
b100110100111111011011111000000101011011 %"
b111111111111010001011000010000001111011101100100 w
b111111111111010001011000010000001111011101100100 ~
b1110100010111011001010111100001101 v
b1110100010111011001010111100001101 }
b1001011001010000010010100011010111010 u
b1001011001010000010010100011010111010 |
b10000100111001000110110111010101110011 t
b10000100111001000110110111010101110011 {
b111111111111001010011110100101011110100011001110 \
b111111111111001010011110100101011110100011001110 g
b111111111110110101101110010000100100111110011001 [
b111111111110110101101110010000100100111110011001 f
b111111111110100001101011011011110011011011101010 Z
b111111111110100001101011011011110011011011101010 e
b111111111110001110100010111000111100010001111001 Y
b111111111110001110100010111000111100010001111001 d
b111111111101111100100000101100111011001010100001 X
b111111111101111100100000101100111011001010100001 c
b111111111101101011101110111010101101001100011111 W
b111111111101101011101110111010101101001100011111 b
b111111111101011100011000100101010100101000100111 V
b111111111101011100011000100101010100101000100111 a
b111111111101001110100111011100011010111011101000 U
b111111111101001110100111011100011010111011101000 `
b11100111100011 ?
b11110001100100 >
b11111011000000 =
b100000011110101 <
b100001100000010 ;
b100010011100110 :
b100011010011111 G
b100100110001110 E
b100101011000010 D
b100101111001000 C
b100110010011111 B
b100110101000111 A
b100110110111111 @
b100111000000111 9
b100111000100000 8
11
#210000
01
#215000
b1110001101111011100110110110101010001 \
b1110001101111011100110110110101010001 g
b1011110100111110111110100100000110111 [
b1011110100111110111110100100000110111 f
b1001010100101110111100101110000001101 Z
b1001010100101110111100101110000001101 e
b110101110110001001011000000000000100 Y
b110101110110001001011000000000000100 d
b100000100101001101010101001101011101 X
b100000100101001101010101001101011101 c
b1011000000011001000011110011011010 W
b1011000000011001000011110011011010 b
b111111111111110101010100111011101001101110110011 V
b111111111111110101010100111011101001101110110011 a
b111111111111011111101111111010000011110010101000 U
b111111111111011111101111111010000011110010101000 `
b111111111100000100100010001100000101101000111100 w
b111111111100000100100010001100000101101000111100 ~
b111111111100101101100011111011000001001000010110 v
b111111111100101101100011111011000001001000010110 }
b111111111101011110101011011000000011101001010111 u
b111111111101011110101011011000000011101001010111 |
b111111111110010101111111011110100111101010101001 t
b111111111110010101111111011110100111101010101001 {
b10000100111001000110110111010101110011 $"
b1001011001010000010010100011010111010 #"
b1110100010111011001010111100001101 ""
b111111111111010001011000010000001111011101100100 !"
b100001011101000001110111111001111110011 '"
b11100111000001000010001111111001101010 &"
b10111001100000111010110011011100010101 %"
17"
b1101100000110010000001000101110110010 5"
b1101100000110010000001000101110110010 :"
b111111111111101010100100100110010111110001110101 4"
b111111111111101010100100100110010111110001110101 9"
b1111010101 ?
b11110101000 >
b101101110110 =
b111100111101 <
b1001011111011 ;
b1011010101101 :
b1101001010001 G
b1110111100101 F
b10000101100111 E
b10010011010011 D
b10100000101010 C
b10101101100111 B
b10111010001001 A
b11000110001111 @
b11010001110111 9
b11011100111110 8
11
#220000
01
#225000
b110101100100000100010111001010000100011 5"
b110101100100000100010111001010000100011 :"
b111000011111011011110001100100010010011 4"
b111000011111011011110001100100010010011 9"
18"
b111111111110010101111111011110100111101010101001 $"
b111111111101011110101011011000000011101001010111 #"
b111111111100101101100011111011000001001000010110 ""
b111111111100000100100010001100000101101000111100 !"
b1001011001010000010010100011010111010 '"
b1110100010111011001010111100001101 &"
b111111111111010001011000010000001111011101100100 %"
b111111111011001011000000100100000111111010100100 w
b111111111011001011000000100100000111111010100100 ~
b111111111011000111110110010010110000001011110011 v
b111111111011000111110110010010110000001011110011 }
b111111111011010000101011111010000110010001010111 u
b111111111011010000101011111010000110010001010111 |
b111111111011100101001011011101100100111101100100 t
b111111111011100101001011011101100100111101100100 {
b11010110011000011011001110101111110001 \
b11010110011000011011001110101111110001 g
b11010000000110011101100110011011001111 [
b11010000000110011101100110011011001111 f
b11000111110100011100100101110111101001 Z
b11000111110100011100100101110111101001 e
b10111101100111001111111011010011000011 Y
b10111101100111001111111011010011000011 d
b10110001100101010000110010011011001011 X
b10110001100101010000110010011011001011 c
b10100011110101101110111111010101010101 W
b10100011110101101110111111010101010101 b
b10010100100001000000110001110110000010 V
b10010100100001000000110001110110000010 a
b10000011110000011000001111000111010011 U
b10000011110000011000001111000111010011 `
b1111111111111111111111111110001010101000111111001101101101001010000011100011 I"
b1100101110001001 ?
b1100111001110001 >
b1101000101110111 =
b1101010010011001 <
b1101011111010110 ;
b1101101100101101 :
b1101111010011001 G
b1110001000011011 F
b1110010110101111 E
b1110100101010011 D
b1110110100000101 C
b1111000011000011 B
b1111010010001010 A
b1111100001011000 @
b1111110000101011 9
b0 8
11
#230000
01
#235000
b10111101011100010001000011100010001000 \
b10111101011100010001000011100010001000 g
b11000111101011010100011111011010111100 [
b11000111101011010100011111011010111100 f
b11001111111111010001100010000000011000 Z
b11001111111111010001100010000000011000 e
b11010110010011001101010010000011101010 Y
b11010110010011001101010010000011101010 d
b11011010100011000100101111000100101000 X
b11011010100011000100101111000100101000 c
b11011100101100000110111100111111101010 W
b11011100101100000110111100111111101010 b
b11011100101101001101100000101001110001 V
b11011100101101001101100000101001110001 a
b11011010100110001011001010111000111010 U
b11011010100110001011001010111000111010 `
b111111111101000110011111000101001100100011101010 w
b111111111101000110011111000101001100100011101010 ~
b111111111100011000111110111101110000000110010101 v
b111111111100011000111110111101110000000110010101 }
b111111111011110100010111110001000000110000001100 u
b111111111011110100010111110001000000110000001100 |
b111111111011011010000010111001101101110011100011 t
b111111111011011010000010111001101101110011100011 {
b111111111011100101001011011101100100111101100100 $"
b111111111011010000101011111010000110010001010111 #"
b111111111011000111110110010010110000001011110011 ""
b111111111011001011000000100100000111111010100100 !"
b111111111101011110101011011000000011101001010111 '"
b111111111100101101100011111011000001001000010110 &"
b111111111100000100100010001100000101101000111100 %"
1"
b100000100011010011011101000011010001001 5"
b100000100011010011011101000011010001001 :"
b101111001001110111010100010001001011100 4"
b101111001001110111010100010001001011100 9"
b111111111111111111111100010101010001111110011011 G"
b110011111100111101110000011001001110101001100100011011 I"
b1011000111111001 ?
b1011001001000001 >
b1011001010111001 =
b1011001101100001 <
b1011010000111000 ;
b1011010100111110 :
b1011011001110010 G
b1011011111010011 F
b1011100101100001 E
b1011101100011010 D
b1011110011111110 C
b1011111100001011 B
b1100000101000000 A
b1100001110011100 @
b1100011000011101 9
b1100100011000010 8
11
#240000
01
#245000
b1100111111001111011100000110010 G"
b1 H"
b111111111110111011101011100011100001011001000111 5"
b111111111110111011101011100011100001011001000111 :"
b1100111111100100100111110010100001111 4"
b1100111111100100100111110010100001111 9"
b111111111011011010000010111001101101110011100011 $"
b111111111011110100010111110001000000110000001100 #"
b111111111100011000111110111101110000000110010101 ""
b111111111101000110011111000101001100100011101010 !"
b111111111011010000101011111010000110010001010111 '"
b111111111011000111110110010010110000001011110011 &"
b111111111011001011000000100100000111111010100100 %"
b101110100111101111110000100010011011 w
b101110100111101111110000100010011011 ~
b111111111111110001011101000100110101000011110010 v
b111111111111110001011101000100110101000011110010 }
b111111111110110100110101111101101011100101000101 u
b111111111110110100110101111101101011100101000101 |
b111111111101111011000110111001001000101010001100 t
b111111111101111011000110111001001000101010001100 {
b110101100001011010100001011100110010 \
b110101100001011010100001011100110010 g
b1001010010001101111011011000001100111 [
b1001010010001101111011011000001100111 f
b1011110010100100100001100100100010110 Z
b1011110010100100100001100100100010110 e
b1110001011101000111000011101110000111 Y
b1110001011101000111000011101110000111 d
b10000011011111010011000100110101011111 X
b10000011011111010011000100110101011111 c
b10010100010001000101010010110011100001 W
b10010100010001000101010010110011100001 b
b10100011100111011010101011010111011001 V
b10100011100111011010101011010111011001 a
b10110001011000100011100101000100011000 U
b10110001011000100011100101000100011000 `
b1111111111111111101110111000010010111100100100011000110111000001110001011101 I"
b1100011000011101 ?
b1100001110011100 >
b1100000101000000 =
b1011111100001011 <
b1011110011111110 ;
b1011101100011010 :
b1011100101100001 G
b1011011001110010 E
b1011010100111110 D
b1011010000111000 C
b1011001101100001 B
b1011001010111001 A
b1011001001000001 @
b1011000111111001 9
b1011000111100000 8
11
#250000
01
#255000
b111111111110001110010000100011001001001010101111 \
b111111111110001110010000100011001001001010101111 g
b111111111110100001011000001000001011011111001001 [
b111111111110100001011000001000001011011111001001 f
b111111111110110101011010001000011010001111110011 Z
b111111111110110101011010001000011010001111110011 e
b111111111111001010001001110110100111111111111100 Y
b111111111111001010001001110110100111111111111100 d
b111111111111011111011010110010101010110010100011 X
b111111111111011111011010110010101010110010100011 c
b111111111111110100111111100110111100001100100110 W
b111111111111110100111111100110111100001100100110 b
b1010101011000100010110010001001101 V
b1010101011000100010110010001001101 a
b100000010000000101111100001101011000 U
b100000010000000101111100001101011000 `
b11111011011101110011111010010111000011 w
b11111011011101110011111010010111000011 ~
b11010010011100000100111110110111101001 v
b11010010011100000100111110110111101001 }
b10100001010100100111111100010110101000 u
b10100001010100100111111100010110101000 |
b1101010000000100001011000010101010110 t
b1101010000000100001011000010101010110 {
b111111111101111011000110111001001000101010001100 $"
b111111111110110100110101111101101011100101000101 #"
b111111111111110001011101000100110101000011110010 ""
b101110100111101111110000100010011011 !"
b111111111011110100010111110001000000110000001100 '"
b111111111100011000111110111101110000000110010101 &"
b111111111101000110011111000101001100100011101010 %"
b111111111010011010111100101110100111111100100100 5"
b111111111010011010111100101110100111111100100100 :"
b111111111100011001110010100100010001010100101101 4"
b111111111100011001110010100100010001010100101101 9"
b11 H"
b111111111111011101110000100101111001001000110001 G"
b1111111111111111110001101101011001011011000101101110111111100100011001100100 I"
b1111110000101011 ?
b1111100001011000 >
b1111010010001010 =
b1111000011000011 <
b1110110100000101 ;
b1110100101010011 :
b1110010110101111 G
b1110001000011011 F
b1101111010011001 E
b1101101100101101 D
b1101011111010110 C
b1101010010011001 B
b1101000101110111 A
b1100111001110001 @
b1100101110001001 9
b1100100011000010 8
11
#260000
01
#265000
b111111111111100011011010110010110110001011011101 G"
b111 H"
b111111111001001011011000110111001011100100000100 5"
b111111111001001011011000110111001011100100000100 :"
b111111111001010010011110011010001100001110100101 4"
b111111111001010010011110011010001100001110100101 9"
b1101010000000100001011000010101010110 $"
b10100001010100100111111100010110101000 #"
b11010010011100000100111110110111101001 ""
b11111011011101110011111010010111000011 !"
b111111111110110100110101111101101011100101000101 '"
b111111111111110001011101000100110101000011110010 &"
b101110100111101111110000100010011011 %"
b100110100111111011011111000000101011011 w
b100110100111111011011111000000101011011 ~
b100111000001001101101001111110100001100 v
b100111000001001101101001111110100001100 }
b100101111010100000101111001101110101000 u
b100101111010100000101111001101110101000 |
b100011010110100100010011011000010011011 t
b100011010110100100010011011000010011011 {
b111111111100101001100111100100110001010000001111 \
b111111111100101001100111100100110001010000001111 g
b111111111100101111111001100010011001100100110001 [
b111111111100101111111001100010011001100100110001 f
b111111111100111000001011100011011010001000010111 Z
b111111111100111000001011100011011010001000010111 e
b111111111101000010011000110000000100101100111101 Y
b111111111101000010011000110000000100101100111101 d
b111111111101001110011010101111001101100100110101 X
b111111111101001110011010101111001101100100110101 c
b111111111101011100001010010001000000101010101011 W
b111111111101011100001010010001000000101010101011 b
b111111111101101011011110111111001110001001111110 V
b111111111101101011011110111111001110001001111110 a
b111111111101111100001111100111110000111000101101 U
b111111111101111100001111100111110000111000101101 `
b1010110000100000000010010010001110111000101010101000101100000 I"
b11010001110111 ?
b11000110001111 >
b10111010001001 =
b10101101100111 <
b10100000101010 ;
b10010011010011 :
b10000101100111 G
b1110111100101 F
b1101001010001 E
b1011010101101 D
b1001011111011 C
b111100111101 B
b101101110110 A
b11110101000 @
b1111010101 9
b0 8
11
#270000
01
